Microsoft Error Reporting log version: 1.0

Error Signature:
Exception: EXC_BAD_ACCESS
Date/Time: 2005-12-11 16:21:54 -0600
Application Name: Microsoft PowerPoint
Application Version: 11.2.0.050714
Module Name: Microsoft PowerPoint
Module Version: 11.2.0.050714
Module Offset: 0x004f96fc
Extra app info: Reg=English Loc=0x0409 


Thread 0 crashed:

#  1  0x01518b5c in  (Microsoft PowerPoint + 0x004f96fc)
#  2  0x01031cc8 in ___wupper_mapC + 0x00000628 (liblame3.92.dylib + 0x00031cc8)
#  3  0x01031cc4 in ___wupper_mapC + 0x00000624 (liblame3.92.dylib + 0x00031cc4)
#  4  0x0102ee7c in _sfBandIndex + 0x00000094 (liblame3.92.dylib + 0x0002ee7c)
#  5  0x010233d0 in _check_console + 0x00000084 (liblame3.92.dylib + 0x000233d0)
#  6  0x005e4064 in  (MCPZ.stb + 0x000083f4)
#  7  0x005e3f68 in  (MCPZ.stb + 0x000082f8)
#  8  0x93184ff0 in __Z23DispatchEventToHandlersP14EventTargetRecP14OpaqueEventRefP14HandlerCallRec + 0x000002B0 (HIToolbox + 0x00006ff0)
#  9  0x93184748 in __Z30SendEventToEventTargetInternalP14OpaqueEventRefP20OpaqueEventTargetRefP14HandlerCallRec + 0x00000170 (HIToolbox + 0x00006748)
# 10  0x931845c4 in _SendEventToEventTargetWithOptions + 0x00000024 (HIToolbox + 0x000065c4)
# 11  0x9318b924 in __Z29ToolboxEventDispatcherHandlerP25OpaqueEventHandlerCallRefP14OpaqueEventRefPv + 0x000002BC (HIToolbox + 0x0000d924)
# 12  0x93185240 in __Z23DispatchEventToHandlersP14EventTargetRecP14OpaqueEventRefP14HandlerCallRec + 0x00000500 (HIToolbox + 0x00007240)
# 13  0x93184748 in __Z30SendEventToEventTargetInternalP14OpaqueEventRefP20OpaqueEventTargetRefP14HandlerCallRec + 0x00000170 (HIToolbox + 0x00006748)
# 14  0x9318b4e8 in _SendEventToEventTarget + 0x00000024 (HIToolbox + 0x0000d4e8)
# 15  0x005fe4ec in  (MCPZ.stb + 0x0002287c)
# 16  0x01031624 in  (Microsoft PowerPoint + 0x000121c4)
# 17  0x0101ff94 in  (Microsoft PowerPoint + 0x00000b34)
# 18  0x0159566c in  (Microsoft PowerPoint + 0x0057620c)